Computational Statistics - Summary
…
We can also get the coeficients for each lamda we estimated and select the best model and get the usual lm summary for it.

coef(fitted) %>%
  as_data_frame()

## # A tibble: 101 x 7
##            ``       GNP Unemployed Armed.Forces Population        Year
##         <dbl>     <dbl>      <dbl>        <dbl>      <dbl>       <dbl>
##  1 2946.85636 0.2635272 0.03648291  0.011161050  -1.737030 -1.41879853
##  2 1895.97527 0.2392348 0.03100610  0.009372158  -1.643803 -0.87657471
##  3 1166.33337 0.2209952 0.02719073  0.008243201  -1.565026 -0.50108472
##  4  635.78843 0.2066111 0.02440554  0.007514565  -1.496246 -0.22885815
##  5  236.65772 0.1948539 0.02230066  0.007043302  -1.434886 -0.02473192
##  6  -71.53274 0.1849806 0.02066688  0.006744636  -1.379323  0.13231532
##  7 -314.43247 0.1765137 0.01937157  0.006565392  -1.328460  0.25560068
##  8 -509.05648 0.1691312 0.01832674  0.006470736  -1.281519  0.35395451
##  9 -667.11647 0.1626072 0.01747181  0.006437042  -1.237922  0.43345188
## 10 -796.92303 0.1567781 0.01676376  0.006447832  -1.197224  0.49840118
## # ... with 91 more rows, and 1 more variables: Employed <dbl>
…
